^C:\GAMEENGINE\COCOS2D-X\COCOS2D-X\PROJECTS\SOAPLAND\COCOS2D\COCOS\AUDIO\PROJ.WIN32\RELEASE.WIN32\MCIPLAYER.OBJ|C:\GAMEENGINE\COCOS2D-X\COCOS2D-X\PROJECTS\SOAPLAND\COCOS2D\COCOS\AUDIO\PROJ.WIN32\RELEASE.WIN32\SIMPLEAUDIOENGINE.OBJ
C:\WINDOWS\GLOBALIZATION\SORTING\SORTDEFAULT.NLS
C:\WINDOWS\SYSTEM32\TZRES.DLL
C:\GAMEENGINE\COCOS2D-X\COCOS2D-X\PROJECTS\SOAPLAND\COCOS2D\COCOS\AUDIO\PROJ.WIN32\RELEASE.WIN32\MCIPLAYER.OBJ
C:\GAMEENGINE\COCOS2D-X\COCOS2D-X\PROJECTS\SOAPLAND\COCOS2D\COCOS\AUDIO\PROJ.WIN32\RELEASE.WIN32\SIMPLEAUDIOENGINE.OBJ
