^C:\GAMEENGINE\COCOS2D-X\COCOS2D-X\PROJECTS\SOAPLAND\COCOS2D\EXTERNAL\CONVERTUTF\CONVERTUTF.C
C:\GAMEENGINE\COCOS2D-X\COCOS2D-X\PROJECTS\SOAPLAND\COCOS2D\COCOS\2D\RELEASE.WIN32\VC120.PDB
^C:\GAMEENGINE\COCOS2D-X\COCOS2D-X\PROJECTS\SOAPLAND\COCOS2D\EXTERNAL\CONVERTUTF\CONVERTUTFWRAPPER.CPP
C:\GAMEENGINE\COCOS2D-X\COCOS2D-X\PROJECTS\SOAPLAND\COCOS2D\COCOS\2D\RELEASE.WIN32\VC120.PDB
^C:\GAMEENGINE\COCOS2D-X\COCOS2D-X\PROJECTS\SOAPLAND\COCOS2D\EXTERNAL\EDTAA3FUNC\EDTAA3FUNC.CPP
C:\GAMEENGINE\COCOS2D-X\COCOS2D-X\PROJECTS\SOAPLAND\COCOS2D\COCOS\2D\RELEASE.WIN32\VC120.PDB
^C:\GAMEENGINE\COCOS2D-X\COCOS2D-X\PROJECTS\SOAPLAND\COCOS2D\EXTERNAL\TINYXML2\TINYXML2.CPP
C:\GAMEENGINE\COCOS2D-X\COCOS2D-X\PROJECTS\SOAPLAND\COCOS2D\COCOS\2D\RELEASE.WIN32\VC120.PDB
^C:\GAMEENGINE\COCOS2D-X\COCOS2D-X\PROJECTS\SOAPLAND\COCOS2D\EXTERNAL\UNZIP\IOAPI.CPP
C:\GAMEENGINE\COCOS2D-X\COCOS2D-X\PROJECTS\SOAPLAND\COCOS2D\COCOS\2D\RELEASE.WIN32\VC120.PDB
^C:\GAMEENGINE\COCOS2D-X\COCOS2D-X\PROJECTS\SOAPLAND\COCOS2D\EXTERNAL\UNZIP\UNZIP.CPP
C:\GAMEENGINE\COCOS2D-X\COCOS2D-X\PROJECTS\SOAPLAND\COCOS2D\COCOS\2D\RELEASE.WIN32\VC120.PDB
^C:\GAMEENGINE\COCOS2D-X\COCOS2D-X\PROJECTS\SOAPLAND\COCOS2D\EXTERNAL\XXHASH\XXHASH.C
C:\GAMEENGINE\COCOS2D-X\COCOS2D-X\PROJECTS\SOAPLAND\COCOS2D\COCOS\2D\RELEASE.WIN32\VC120.PDB
^C:\GAMEENGINE\COCOS2D-X\COCOS2D-X\PROJECTS\SOAPLAND\COCOS2D\COCOS\3D\CCMESH.CPP
C:\GAMEENGINE\COCOS2D-X\COCOS2D-X\PROJECTS\SOAPLAND\COCOS2D\COCOS\2D\RELEASE.WIN32\VC120.PDB
^C:\GAMEENGINE\COCOS2D-X\COCOS2D-X\PROJECTS\SOAPLAND\COCOS2D\COCOS\3D\CCOBJLOADER.CPP
C:\GAMEENGINE\COCOS2D-X\COCOS2D-X\PROJECTS\SOAPLAND\COCOS2D\COCOS\2D\RELEASE.WIN32\VC120.PDB
^C:\GAMEENGINE\COCOS2D-X\COCOS2D-X\PROJECTS\SOAPLAND\COCOS2D\COCOS\3D\CCSPRITE3D.CPP
C:\GAMEENGINE\COCOS2D-X\COCOS2D-X\PROJECTS\SOAPLAND\COCOS2D\COCOS\2D\RELEASE.WIN32\VC120.PDB
^C:\GAMEENGINE\COCOS2D-X\COCOS2D-X\PROJECTS\SOAPLAND\COCOS2D\COCOS\3D\CCSPRITE3DDATACACHE.CPP
C:\GAMEENGINE\COCOS2D-X\COCOS2D-X\PROJECTS\SOAPLAND\COCOS2D\COCOS\2D\RELEASE.WIN32\VC120.PDB
^C:\GAMEENGINE\COCOS2D-X\COCOS2D-X\PROJECTS\SOAPLAND\COCOS2D\COCOS\BASE\ATITC.CPP
C:\GAMEENGINE\COCOS2D-X\COCOS2D-X\PROJECTS\SOAPLAND\COCOS2D\COCOS\2D\RELEASE.WIN32\VC120.PDB
^C:\GAMEENGINE\COCOS2D-X\COCOS2D-X\PROJECTS\SOAPLAND\COCOS2D\COCOS\BASE\BASE64.CPP
C:\GAMEENGINE\COCOS2D-X\COCOS2D-X\PROJECTS\SOAPLAND\COCOS2D\COCOS\2D\RELEASE.WIN32\VC120.PDB
^C:\GAMEENGINE\COCOS2D-X\COCOS2D-X\PROJECTS\SOAPLAND\COCOS2D\COCOS\BASE\CCAUTORELEASEPOOL.CPP
C:\GAMEENGINE\COCOS2D-X\COCOS2D-X\PROJECTS\SOAPLAND\COCOS2D\COCOS\2D\RELEASE.WIN32\VC120.PDB
^C:\GAMEENGINE\COCOS2D-X\COCOS2D-X\PROJECTS\SOAPLAND\COCOS2D\COCOS\BASE\CCCARRAY.CPP
C:\GAMEENGINE\COCOS2D-X\COCOS2D-X\PROJECTS\SOAPLAND\COCOS2D\COCOS\2D\RELEASE.WIN32\VC120.PDB
^C:\GAMEENGINE\COCOS2D-X\COCOS2D-X\PROJECTS\SOAPLAND\COCOS2D\COCOS\BASE\CCCONFIGURATION.CPP
C:\GAMEENGINE\COCOS2D-X\COCOS2D-X\PROJECTS\SOAPLAND\COCOS2D\COCOS\2D\RELEASE.WIN32\VC120.PDB
^C:\GAMEENGINE\COCOS2D-X\COCOS2D-X\PROJECTS\SOAPLAND\COCOS2D\COCOS\BASE\CCCONSOLE.CPP
C:\GAMEENGINE\COCOS2D-X\COCOS2D-X\PROJECTS\SOAPLAND\COCOS2D\COCOS\2D\RELEASE.WIN32\VC120.PDB
^C:\GAMEENGINE\COCOS2D-X\COCOS2D-X\PROJECTS\SOAPLAND\COCOS2D\COCOS\BASE\CCDATA.CPP
C:\GAMEENGINE\COCOS2D-X\COCOS2D-X\PROJECTS\SOAPLAND\COCOS2D\COCOS\2D\RELEASE.WIN32\VC120.PDB
^C:\GAMEENGINE\COCOS2D-X\COCOS2D-X\PROJECTS\SOAPLAND\COCOS2D\COCOS\BASE\CCDATAVISITOR.CPP
C:\GAMEENGINE\COCOS2D-X\COCOS2D-X\PROJECTS\SOAPLAND\COCOS2D\COCOS\2D\RELEASE.WIN32\VC120.PDB
^C:\GAMEENGINE\COCOS2D-X\COCOS2D-X\PROJECTS\SOAPLAND\COCOS2D\COCOS\BASE\CCDIRECTOR.CPP
C:\GAMEENGINE\COCOS2D-X\COCOS2D-X\PROJECTS\SOAPLAND\COCOS2D\COCOS\2D\RELEASE.WIN32\VC120.PDB
^C:\GAMEENGINE\COCOS2D-X\COCOS2D-X\PROJECTS\SOAPLAND\COCOS2D\COCOS\BASE\CCEVENT.CPP
C:\GAMEENGINE\COCOS2D-X\COCOS2D-X\PROJECTS\SOAPLAND\COCOS2D\COCOS\2D\RELEASE.WIN32\VC120.PDB
^C:\GAMEENGINE\COCOS2D-X\COCOS2D-X\PROJECTS\SOAPLAND\COCOS2D\COCOS\BASE\CCEVENTACCELERATION.CPP
C:\GAMEENGINE\COCOS2D-X\COCOS2D-X\PROJECTS\SOAPLAND\COCOS2D\COCOS\2D\RELEASE.WIN32\VC120.PDB
^C:\GAMEENGINE\COCOS2D-X\COCOS2D-X\PROJECTS\SOAPLAND\COCOS2D\COCOS\BASE\CCEVENTCUSTOM.CPP
C:\GAMEENGINE\COCOS2D-X\COCOS2D-X\PROJECTS\SOAPLAND\COCOS2D\COCOS\2D\RELEASE.WIN32\VC120.PDB
^C:\GAMEENGINE\COCOS2D-X\COCOS2D-X\PROJECTS\SOAPLAND\COCOS2D\COCOS\BASE\CCEVENTDISPATCHER.CPP
C:\GAMEENGINE\COCOS2D-X\COCOS2D-X\PROJECTS\SOAPLAND\COCOS2D\COCOS\2D\RELEASE.WIN32\VC120.PDB
^C:\GAMEENGINE\COCOS2D-X\COCOS2D-X\PROJECTS\SOAPLAND\COCOS2D\COCOS\BASE\CCEVENTFOCUS.CPP
C:\GAMEENGINE\COCOS2D-X\COCOS2D-X\PROJECTS\SOAPLAND\COCOS2D\COCOS\2D\RELEASE.WIN32\VC120.PDB
^C:\GAMEENGINE\COCOS2D-X\COCOS2D-X\PROJECTS\SOAPLAND\COCOS2D\COCOS\BASE\CCEVENTKEYBOARD.CPP
C:\GAMEENGINE\COCOS2D-X\COCOS2D-X\PROJECTS\SOAPLAND\COCOS2D\COCOS\2D\RELEASE.WIN32\VC120.PDB
^C:\GAMEENGINE\COCOS2D-X\COCOS2D-X\PROJECTS\SOAPLAND\COCOS2D\COCOS\BASE\CCEVENTLISTENER.CPP
C:\GAMEENGINE\COCOS2D-X\COCOS2D-X\PROJECTS\SOAPLAND\COCOS2D\COCOS\2D\RELEASE.WIN32\VC120.PDB
^C:\GAMEENGINE\COCOS2D-X\COCOS2D-X\PROJECTS\SOAPLAND\COCOS2D\COCOS\BASE\CCEVENTLISTENERACCELERATION.CPP
C:\GAMEENGINE\COCOS2D-X\COCOS2D-X\PROJECTS\SOAPLAND\COCOS2D\COCOS\2D\RELEASE.WIN32\VC120.PDB
^C:\GAMEENGINE\COCOS2D-X\COCOS2D-X\PROJECTS\SOAPLAND\COCOS2D\COCOS\BASE\CCEVENTLISTENERCUSTOM.CPP
C:\GAMEENGINE\COCOS2D-X\COCOS2D-X\PROJECTS\SOAPLAND\COCOS2D\COCOS\2D\RELEASE.WIN32\VC120.PDB
^C:\GAMEENGINE\COCOS2D-X\COCOS2D-X\PROJECTS\SOAPLAND\COCOS2D\COCOS\BASE\CCEVENTLISTENERFOCUS.CPP
C:\GAMEENGINE\COCOS2D-X\COCOS2D-X\PROJECTS\SOAPLAND\COCOS2D\COCOS\2D\RELEASE.WIN32\VC120.PDB
^C:\GAMEENGINE\COCOS2D-X\COCOS2D-X\PROJECTS\SOAPLAND\COCOS2D\COCOS\BASE\CCEVENTLISTENERKEYBOARD.CPP
C:\GAMEENGINE\COCOS2D-X\COCOS2D-X\PROJECTS\SOAPLAND\COCOS2D\COCOS\2D\RELEASE.WIN32\VC120.PDB
^C:\GAMEENGINE\COCOS2D-X\COCOS2D-X\PROJECTS\SOAPLAND\COCOS2D\COCOS\BASE\CCEVENTLISTENERMOUSE.CPP
C:\GAMEENGINE\COCOS2D-X\COCOS2D-X\PROJECTS\SOAPLAND\COCOS2D\COCOS\2D\RELEASE.WIN32\VC120.PDB
^C:\GAMEENGINE\COCOS2D-X\COCOS2D-X\PROJECTS\SOAPLAND\COCOS2D\COCOS\BASE\CCEVENTLISTENERTOUCH.CPP
C:\GAMEENGINE\COCOS2D-X\COCOS2D-X\PROJECTS\SOAPLAND\COCOS2D\COCOS\2D\RELEASE.WIN32\VC120.PDB
^C:\GAMEENGINE\COCOS2D-X\COCOS2D-X\PROJECTS\SOAPLAND\COCOS2D\COCOS\BASE\CCEVENTMOUSE.CPP
C:\GAMEENGINE\COCOS2D-X\COCOS2D-X\PROJECTS\SOAPLAND\COCOS2D\COCOS\2D\RELEASE.WIN32\VC120.PDB
^C:\GAMEENGINE\COCOS2D-X\COCOS2D-X\PROJECTS\SOAPLAND\COCOS2D\COCOS\BASE\CCEVENTTOUCH.CPP
C:\GAMEENGINE\COCOS2D-X\COCOS2D-X\PROJECTS\SOAPLAND\COCOS2D\COCOS\2D\RELEASE.WIN32\VC120.PDB
^C:\GAMEENGINE\COCOS2D-X\COCOS2D-X\PROJECTS\SOAPLAND\COCOS2D\COCOS\BASE\CCFPSIMAGES.C
C:\GAMEENGINE\COCOS2D-X\COCOS2D-X\PROJECTS\SOAPLAND\COCOS2D\COCOS\2D\RELEASE.WIN32\VC120.PDB
^C:\GAMEENGINE\COCOS2D-X\COCOS2D-X\PROJECTS\SOAPLAND\COCOS2D\COCOS\BASE\CCIMEDISPATCHER.CPP
C:\GAMEENGINE\COCOS2D-X\COCOS2D-X\PROJECTS\SOAPLAND\COCOS2D\COCOS\2D\RELEASE.WIN32\VC120.PDB
^C:\GAMEENGINE\COCOS2D-X\COCOS2D-X\PROJECTS\SOAPLAND\COCOS2D\COCOS\BASE\CCNS.CPP
C:\GAMEENGINE\COCOS2D-X\COCOS2D-X\PROJECTS\SOAPLAND\COCOS2D\COCOS\2D\RELEASE.WIN32\VC120.PDB
^C:\GAMEENGINE\COCOS2D-X\COCOS2D-X\PROJECTS\SOAPLAND\COCOS2D\COCOS\BASE\CCPROFILING.CPP
C:\GAMEENGINE\COCOS2D-X\COCOS2D-X\PROJECTS\SOAPLAND\COCOS2D\COCOS\2D\RELEASE.WIN32\VC120.PDB
^C:\GAMEENGINE\COCOS2D-X\COCOS2D-X\PROJECTS\SOAPLAND\COCOS2D\COCOS\BASE\CCREF.CPP
C:\GAMEENGINE\COCOS2D-X\COCOS2D-X\PROJECTS\SOAPLAND\COCOS2D\COCOS\2D\RELEASE.WIN32\VC120.PDB
^C:\GAMEENGINE\COCOS2D-X\COCOS2D-X\PROJECTS\SOAPLAND\COCOS2D\COCOS\BASE\CCSCHEDULER.CPP
C:\GAMEENGINE\COCOS2D-X\COCOS2D-X\PROJECTS\SOAPLAND\COCOS2D\COCOS\2D\RELEASE.WIN32\VC120.PDB
^C:\GAMEENGINE\COCOS2D-X\COCOS2D-X\PROJECTS\SOAPLAND\COCOS2D\COCOS\BASE\CCSCRIPTSUPPORT.CPP
C:\GAMEENGINE\COCOS2D-X\COCOS2D-X\PROJECTS\SOAPLAND\COCOS2D\COCOS\2D\RELEASE.WIN32\VC120.PDB
^C:\GAMEENGINE\COCOS2D-X\COCOS2D-X\PROJECTS\SOAPLAND\COCOS2D\COCOS\BASE\CCTOUCH.CPP
C:\GAMEENGINE\COCOS2D-X\COCOS2D-X\PROJECTS\SOAPLAND\COCOS2D\COCOS\2D\RELEASE.WIN32\VC120.PDB
^C:\GAMEENGINE\COCOS2D-X\COCOS2D-X\PROJECTS\SOAPLAND\COCOS2D\COCOS\BASE\CCTYPES.CPP
C:\GAMEENGINE\COCOS2D-X\COCOS2D-X\PROJECTS\SOAPLAND\COCOS2D\COCOS\2D\RELEASE.WIN32\VC120.PDB
^C:\GAMEENGINE\COCOS2D-X\COCOS2D-X\PROJECTS\SOAPLAND\COCOS2D\COCOS\BASE\CCUSERDEFAULT.CPP
C:\GAMEENGINE\COCOS2D-X\COCOS2D-X\PROJECTS\SOAPLAND\COCOS2D\COCOS\2D\RELEASE.WIN32\VC120.PDB
^C:\GAMEENGINE\COCOS2D-X\COCOS2D-X\PROJECTS\SOAPLAND\COCOS2D\COCOS\BASE\CCUSERDEFAULTANDROID.CPP
C:\GAMEENGINE\COCOS2D-X\COCOS2D-X\PROJECTS\SOAPLAND\COCOS2D\COCOS\2D\RELEASE.WIN32\VC120.PDB
^C:\GAMEENGINE\COCOS2D-X\COCOS2D-X\PROJECTS\SOAPLAND\COCOS2D\COCOS\BASE\CCUTF8.CPP
C:\GAMEENGINE\COCOS2D-X\COCOS2D-X\PROJECTS\SOAPLAND\COCOS2D\COCOS\2D\RELEASE.WIN32\VC120.PDB
^C:\GAMEENGINE\COCOS2D-X\COCOS2D-X\PROJECTS\SOAPLAND\COCOS2D\COCOS\BASE\CCUTILS.CPP
C:\GAMEENGINE\COCOS2D-X\COCOS2D-X\PROJECTS\SOAPLAND\COCOS2D\COCOS\2D\RELEASE.WIN32\VC120.PDB
^C:\GAMEENGINE\COCOS2D-X\COCOS2D-X\PROJECTS\SOAPLAND\COCOS2D\COCOS\BASE\CCVALUE.CPP
C:\GAMEENGINE\COCOS2D-X\COCOS2D-X\PROJECTS\SOAPLAND\COCOS2D\COCOS\2D\RELEASE.WIN32\VC120.PDB
^C:\GAMEENGINE\COCOS2D-X\COCOS2D-X\PROJECTS\SOAPLAND\COCOS2D\COCOS\BASE\ETC1.CPP
C:\GAMEENGINE\COCOS2D-X\COCOS2D-X\PROJECTS\SOAPLAND\COCOS2D\COCOS\2D\RELEASE.WIN32\VC120.PDB
^C:\GAMEENGINE\COCOS2D-X\COCOS2D-X\PROJECTS\SOAPLAND\COCOS2D\COCOS\BASE\S3TC.CPP
C:\GAMEENGINE\COCOS2D-X\COCOS2D-X\PROJECTS\SOAPLAND\COCOS2D\COCOS\2D\RELEASE.WIN32\VC120.PDB
^C:\GAMEENGINE\COCOS2D-X\COCOS2D-X\PROJECTS\SOAPLAND\COCOS2D\COCOS\BASE\TGALIB.CPP
C:\GAMEENGINE\COCOS2D-X\COCOS2D-X\PROJECTS\SOAPLAND\COCOS2D\COCOS\2D\RELEASE.WIN32\VC120.PDB
^C:\GAMEENGINE\COCOS2D-X\COCOS2D-X\PROJECTS\SOAPLAND\COCOS2D\COCOS\BASE\ZIPUTILS.CPP
C:\GAMEENGINE\COCOS2D-X\COCOS2D-X\PROJECTS\SOAPLAND\COCOS2D\COCOS\2D\RELEASE.WIN32\VC120.PDB
^C:\GAMEENGINE\COCOS2D-X\COCOS2D-X\PROJECTS\SOAPLAND\COCOS2D\COCOS\COCOS2D.CPP
C:\GAMEENGINE\COCOS2D-X\COCOS2D-X\PROJECTS\SOAPLAND\COCOS2D\COCOS\2D\RELEASE.WIN32\VC120.PDB
^C:\GAMEENGINE\COCOS2D-X\COCOS2D-X\PROJECTS\SOAPLAND\COCOS2D\COCOS\DEPRECATED\CCARRAY.CPP
C:\GAMEENGINE\COCOS2D-X\COCOS2D-X\PROJECTS\SOAPLAND\COCOS2D\COCOS\2D\RELEASE.WIN32\VC120.PDB
^C:\GAMEENGINE\COCOS2D-X\COCOS2D-X\PROJECTS\SOAPLAND\COCOS2D\COCOS\DEPRECATED\CCDEPRECATED.CPP
C:\GAMEENGINE\COCOS2D-X\COCOS2D-X\PROJECTS\SOAPLAND\COCOS2D\COCOS\2D\RELEASE.WIN32\VC120.PDB
^C:\GAMEENGINE\COCOS2D-X\COCOS2D-X\PROJECTS\SOAPLAND\COCOS2D\COCOS\DEPRECATED\CCDICTIONARY.CPP
C:\GAMEENGINE\COCOS2D-X\COCOS2D-X\PROJECTS\SOAPLAND\COCOS2D\COCOS\2D\RELEASE.WIN32\VC120.PDB
^C:\GAMEENGINE\COCOS2D-X\COCOS2D-X\PROJECTS\SOAPLAND\COCOS2D\COCOS\DEPRECATED\CCNOTIFICATIONCENTER.CPP
C:\GAMEENGINE\COCOS2D-X\COCOS2D-X\PROJECTS\SOAPLAND\COCOS2D\COCOS\2D\RELEASE.WIN32\VC120.PDB
^C:\GAMEENGINE\COCOS2D-X\COCOS2D-X\PROJECTS\SOAPLAND\COCOS2D\COCOS\DEPRECATED\CCSET.CPP
C:\GAMEENGINE\COCOS2D-X\COCOS2D-X\PROJECTS\SOAPLAND\COCOS2D\COCOS\2D\RELEASE.WIN32\VC120.PDB
^C:\GAMEENGINE\COCOS2D-X\COCOS2D-X\PROJECTS\SOAPLAND\COCOS2D\COCOS\DEPRECATED\CCSTRING.CPP
C:\GAMEENGINE\COCOS2D-X\COCOS2D-X\PROJECTS\SOAPLAND\COCOS2D\COCOS\2D\RELEASE.WIN32\VC120.PDB
^C:\GAMEENGINE\COCOS2D-X\COCOS2D-X\PROJECTS\SOAPLAND\COCOS2D\COCOS\MATH\CCAFFINETRANSFORM.CPP
C:\GAMEENGINE\COCOS2D-X\COCOS2D-X\PROJECTS\SOAPLAND\COCOS2D\COCOS\2D\RELEASE.WIN32\VC120.PDB
^C:\GAMEENGINE\COCOS2D-X\COCOS2D-X\PROJECTS\SOAPLAND\COCOS2D\COCOS\MATH\CCGEOMETRY.CPP
C:\GAMEENGINE\COCOS2D-X\COCOS2D-X\PROJECTS\SOAPLAND\COCOS2D\COCOS\2D\RELEASE.WIN32\VC120.PDB
^C:\GAMEENGINE\COCOS2D-X\COCOS2D-X\PROJECTS\SOAPLAND\COCOS2D\COCOS\MATH\CCVERTEX.CPP
C:\GAMEENGINE\COCOS2D-X\COCOS2D-X\PROJECTS\SOAPLAND\COCOS2D\COCOS\2D\RELEASE.WIN32\VC120.PDB
^C:\GAMEENGINE\COCOS2D-X\COCOS2D-X\PROJECTS\SOAPLAND\COCOS2D\COCOS\MATH\MAT4.CPP
C:\GAMEENGINE\COCOS2D-X\COCOS2D-X\PROJECTS\SOAPLAND\COCOS2D\COCOS\2D\RELEASE.WIN32\VC120.PDB
^C:\GAMEENGINE\COCOS2D-X\COCOS2D-X\PROJECTS\SOAPLAND\COCOS2D\COCOS\MATH\MATHUTIL.CPP
C:\GAMEENGINE\COCOS2D-X\COCOS2D-X\PROJECTS\SOAPLAND\COCOS2D\COCOS\2D\RELEASE.WIN32\VC120.PDB
^C:\GAMEENGINE\COCOS2D-X\COCOS2D-X\PROJECTS\SOAPLAND\COCOS2D\COCOS\MATH\QUATERNION.CPP
C:\GAMEENGINE\COCOS2D-X\COCOS2D-X\PROJECTS\SOAPLAND\COCOS2D\COCOS\2D\RELEASE.WIN32\VC120.PDB
^C:\GAMEENGINE\COCOS2D-X\COCOS2D-X\PROJECTS\SOAPLAND\COCOS2D\COCOS\MATH\TRANSFORMUTILS.CPP
C:\GAMEENGINE\COCOS2D-X\COCOS2D-X\PROJECTS\SOAPLAND\COCOS2D\COCOS\2D\RELEASE.WIN32\VC120.PDB
^C:\GAMEENGINE\COCOS2D-X\COCOS2D-X\PROJECTS\SOAPLAND\COCOS2D\COCOS\MATH\VEC2.CPP
C:\GAMEENGINE\COCOS2D-X\COCOS2D-X\PROJECTS\SOAPLAND\COCOS2D\COCOS\2D\RELEASE.WIN32\VC120.PDB
^C:\GAMEENGINE\COCOS2D-X\COCOS2D-X\PROJECTS\SOAPLAND\COCOS2D\COCOS\MATH\VEC3.CPP
C:\GAMEENGINE\COCOS2D-X\COCOS2D-X\PROJECTS\SOAPLAND\COCOS2D\COCOS\2D\RELEASE.WIN32\VC120.PDB
^C:\GAMEENGINE\COCOS2D-X\COCOS2D-X\PROJECTS\SOAPLAND\COCOS2D\COCOS\MATH\VEC4.CPP
C:\GAMEENGINE\COCOS2D-X\COCOS2D-X\PROJECTS\SOAPLAND\COCOS2D\COCOS\2D\RELEASE.WIN32\VC120.PDB
^C:\GAMEENGINE\COCOS2D-X\COCOS2D-X\PROJECTS\SOAPLAND\COCOS2D\COCOS\PHYSICS\CCPHYSICSBODY.CPP
C:\GAMEENGINE\COCOS2D-X\COCOS2D-X\PROJECTS\SOAPLAND\COCOS2D\COCOS\2D\RELEASE.WIN32\VC120.PDB
^C:\GAMEENGINE\COCOS2D-X\COCOS2D-X\PROJECTS\SOAPLAND\COCOS2D\COCOS\PHYSICS\CCPHYSICSCONTACT.CPP
C:\GAMEENGINE\COCOS2D-X\COCOS2D-X\PROJECTS\SOAPLAND\COCOS2D\COCOS\2D\RELEASE.WIN32\VC120.PDB
^C:\GAMEENGINE\COCOS2D-X\COCOS2D-X\PROJECTS\SOAPLAND\COCOS2D\COCOS\PHYSICS\CCPHYSICSJOINT.CPP
C:\GAMEENGINE\COCOS2D-X\COCOS2D-X\PROJECTS\SOAPLAND\COCOS2D\COCOS\2D\RELEASE.WIN32\VC120.PDB
^C:\GAMEENGINE\COCOS2D-X\COCOS2D-X\PROJECTS\SOAPLAND\COCOS2D\COCOS\PHYSICS\CCPHYSICSSHAPE.CPP
C:\GAMEENGINE\COCOS2D-X\COCOS2D-X\PROJECTS\SOAPLAND\COCOS2D\COCOS\2D\RELEASE.WIN32\VC120.PDB
^C:\GAMEENGINE\COCOS2D-X\COCOS2D-X\PROJECTS\SOAPLAND\COCOS2D\COCOS\PHYSICS\CCPHYSICSWORLD.CPP
C:\GAMEENGINE\COCOS2D-X\COCOS2D-X\PROJECTS\SOAPLAND\COCOS2D\COCOS\2D\RELEASE.WIN32\VC120.PDB
^C:\GAMEENGINE\COCOS2D-X\COCOS2D-X\PROJECTS\SOAPLAND\COCOS2D\COCOS\PHYSICS\CHIPMUNK\CCPHYSICSBODYINFO_CHIPMUNK.CPP
C:\GAMEENGINE\COCOS2D-X\COCOS2D-X\PROJECTS\SOAPLAND\COCOS2D\COCOS\2D\RELEASE.WIN32\VC120.PDB
^C:\GAMEENGINE\COCOS2D-X\COCOS2D-X\PROJECTS\SOAPLAND\COCOS2D\COCOS\PHYSICS\CHIPMUNK\CCPHYSICSCONTACTINFO_CHIPMUNK.CPP
C:\GAMEENGINE\COCOS2D-X\COCOS2D-X\PROJECTS\SOAPLAND\COCOS2D\COCOS\2D\RELEASE.WIN32\VC120.PDB
^C:\GAMEENGINE\COCOS2D-X\COCOS2D-X\PROJECTS\SOAPLAND\COCOS2D\COCOS\PHYSICS\CHIPMUNK\CCPHYSICSJOINTINFO_CHIPMUNK.CPP
C:\GAMEENGINE\COCOS2D-X\COCOS2D-X\PROJECTS\SOAPLAND\COCOS2D\COCOS\2D\RELEASE.WIN32\VC120.PDB
^C:\GAMEENGINE\COCOS2D-X\COCOS2D-X\PROJECTS\SOAPLAND\COCOS2D\COCOS\PHYSICS\CHIPMUNK\CCPHYSICSSHAPEINFO_CHIPMUNK.CPP
C:\GAMEENGINE\COCOS2D-X\COCOS2D-X\PROJECTS\SOAPLAND\COCOS2D\COCOS\2D\RELEASE.WIN32\VC120.PDB
^C:\GAMEENGINE\COCOS2D-X\COCOS2D-X\PROJECTS\SOAPLAND\COCOS2D\COCOS\PHYSICS\CHIPMUNK\CCPHYSICSWORLDINFO_CHIPMUNK.CPP
C:\GAMEENGINE\COCOS2D-X\COCOS2D-X\PROJECTS\SOAPLAND\COCOS2D\COCOS\2D\RELEASE.WIN32\VC120.PDB
^C:\GAMEENGINE\COCOS2D-X\COCOS2D-X\PROJECTS\SOAPLAND\COCOS2D\COCOS\PLATFORM\CCFILEUTILS.CPP
C:\GAMEENGINE\COCOS2D-X\COCOS2D-X\PROJECTS\SOAPLAND\COCOS2D\COCOS\2D\RELEASE.WIN32\VC120.PDB
^C:\GAMEENGINE\COCOS2D-X\COCOS2D-X\PROJECTS\SOAPLAND\COCOS2D\COCOS\PLATFORM\CCGLVIEWPROTOCOL.CPP
C:\GAMEENGINE\COCOS2D-X\COCOS2D-X\PROJECTS\SOAPLAND\COCOS2D\COCOS\2D\RELEASE.WIN32\VC120.PDB
^C:\GAMEENGINE\COCOS2D-X\COCOS2D-X\PROJECTS\SOAPLAND\COCOS2D\COCOS\PLATFORM\CCIMAGE.CPP
C:\GAMEENGINE\COCOS2D-X\COCOS2D-X\PROJECTS\SOAPLAND\COCOS2D\COCOS\2D\RELEASE.WIN32\VC120.PDB
^C:\GAMEENGINE\COCOS2D-X\COCOS2D-X\PROJECTS\SOAPLAND\COCOS2D\COCOS\PLATFORM\CCSAXPARSER.CPP
C:\GAMEENGINE\COCOS2D-X\COCOS2D-X\PROJECTS\SOAPLAND\COCOS2D\COCOS\2D\RELEASE.WIN32\VC120.PDB
^C:\GAMEENGINE\COCOS2D-X\COCOS2D-X\PROJECTS\SOAPLAND\COCOS2D\COCOS\PLATFORM\CCTHREAD.CPP
C:\GAMEENGINE\COCOS2D-X\COCOS2D-X\PROJECTS\SOAPLAND\COCOS2D\COCOS\2D\RELEASE.WIN32\VC120.PDB
^C:\GAMEENGINE\COCOS2D-X\COCOS2D-X\PROJECTS\SOAPLAND\COCOS2D\COCOS\PLATFORM\DESKTOP\CCGLVIEW.CPP
C:\GAMEENGINE\COCOS2D-X\COCOS2D-X\PROJECTS\SOAPLAND\COCOS2D\COCOS\2D\RELEASE.WIN32\VC120.PDB
^C:\GAMEENGINE\COCOS2D-X\COCOS2D-X\PROJECTS\SOAPLAND\COCOS2D\COCOS\PLATFORM\WIN32\CCAPPLICATION.CPP
C:\GAMEENGINE\COCOS2D-X\COCOS2D-X\PROJECTS\SOAPLAND\COCOS2D\COCOS\2D\RELEASE.WIN32\VC120.PDB
^C:\GAMEENGINE\COCOS2D-X\COCOS2D-X\PROJECTS\SOAPLAND\COCOS2D\COCOS\PLATFORM\WIN32\CCCOMMON.CPP
C:\GAMEENGINE\COCOS2D-X\COCOS2D-X\PROJECTS\SOAPLAND\COCOS2D\COCOS\2D\RELEASE.WIN32\VC120.PDB
^C:\GAMEENGINE\COCOS2D-X\COCOS2D-X\PROJECTS\SOAPLAND\COCOS2D\COCOS\PLATFORM\WIN32\CCDEVICE.CPP
C:\GAMEENGINE\COCOS2D-X\COCOS2D-X\PROJECTS\SOAPLAND\COCOS2D\COCOS\2D\RELEASE.WIN32\VC120.PDB
^C:\GAMEENGINE\COCOS2D-X\COCOS2D-X\PROJECTS\SOAPLAND\COCOS2D\COCOS\PLATFORM\WIN32\CCFILEUTILSWIN32.CPP
C:\GAMEENGINE\COCOS2D-X\COCOS2D-X\PROJECTS\SOAPLAND\COCOS2D\COCOS\2D\RELEASE.WIN32\VC120.PDB
^C:\GAMEENGINE\COCOS2D-X\COCOS2D-X\PROJECTS\SOAPLAND\COCOS2D\COCOS\PLATFORM\WIN32\CCSTDC.CPP
C:\GAMEENGINE\COCOS2D-X\COCOS2D-X\PROJECTS\SOAPLAND\COCOS2D\COCOS\2D\RELEASE.WIN32\VC120.PDB
^C:\GAMEENGINE\COCOS2D-X\COCOS2D-X\PROJECTS\SOAPLAND\COCOS2D\COCOS\RENDERER\CCBATCHCOMMAND.CPP
C:\GAMEENGINE\COCOS2D-X\COCOS2D-X\PROJECTS\SOAPLAND\COCOS2D\COCOS\2D\RELEASE.WIN32\VC120.PDB
^C:\GAMEENGINE\COCOS2D-X\COCOS2D-X\PROJECTS\SOAPLAND\COCOS2D\COCOS\RENDERER\CCCUSTOMCOMMAND.CPP
C:\GAMEENGINE\COCOS2D-X\COCOS2D-X\PROJECTS\SOAPLAND\COCOS2D\COCOS\2D\RELEASE.WIN32\VC120.PDB
^C:\GAMEENGINE\COCOS2D-X\COCOS2D-X\PROJECTS\SOAPLAND\COCOS2D\COCOS\RENDERER\CCGLPROGRAM.CPP
C:\GAMEENGINE\COCOS2D-X\COCOS2D-X\PROJECTS\SOAPLAND\COCOS2D\COCOS\2D\RELEASE.WIN32\VC120.PDB
^C:\GAMEENGINE\COCOS2D-X\COCOS2D-X\PROJECTS\SOAPLAND\COCOS2D\COCOS\RENDERER\CCGLPROGRAMCACHE.CPP
C:\GAMEENGINE\COCOS2D-X\COCOS2D-X\PROJECTS\SOAPLAND\COCOS2D\COCOS\2D\RELEASE.WIN32\VC120.PDB
^C:\GAMEENGINE\COCOS2D-X\COCOS2D-X\PROJECTS\SOAPLAND\COCOS2D\COCOS\RENDERER\CCGLPROGRAMSTATE.CPP
C:\GAMEENGINE\COCOS2D-X\COCOS2D-X\PROJECTS\SOAPLAND\COCOS2D\COCOS\2D\RELEASE.WIN32\VC120.PDB
^C:\GAMEENGINE\COCOS2D-X\COCOS2D-X\PROJECTS\SOAPLAND\COCOS2D\COCOS\RENDERER\CCGLPROGRAMSTATECACHE.CPP
C:\GAMEENGINE\COCOS2D-X\COCOS2D-X\PROJECTS\SOAPLAND\COCOS2D\COCOS\2D\RELEASE.WIN32\VC120.PDB
^C:\GAMEENGINE\COCOS2D-X\COCOS2D-X\PROJECTS\SOAPLAND\COCOS2D\COCOS\RENDERER\CCGLSTATECACHE.CPP
C:\GAMEENGINE\COCOS2D-X\COCOS2D-X\PROJECTS\SOAPLAND\COCOS2D\COCOS\2D\RELEASE.WIN32\VC120.PDB
^C:\GAMEENGINE\COCOS2D-X\COCOS2D-X\PROJECTS\SOAPLAND\COCOS2D\COCOS\RENDERER\CCGROUPCOMMAND.CPP
C:\GAMEENGINE\COCOS2D-X\COCOS2D-X\PROJECTS\SOAPLAND\COCOS2D\COCOS\2D\RELEASE.WIN32\VC120.PDB
^C:\GAMEENGINE\COCOS2D-X\COCOS2D-X\PROJECTS\SOAPLAND\COCOS2D\COCOS\RENDERER\CCMESHCOMMAND.CPP
C:\GAMEENGINE\COCOS2D-X\COCOS2D-X\PROJECTS\SOAPLAND\COCOS2D\COCOS\2D\RELEASE.WIN32\VC120.PDB
^C:\GAMEENGINE\COCOS2D-X\COCOS2D-X\PROJECTS\SOAPLAND\COCOS2D\COCOS\RENDERER\CCQUADCOMMAND.CPP
C:\GAMEENGINE\COCOS2D-X\COCOS2D-X\PROJECTS\SOAPLAND\COCOS2D\COCOS\2D\RELEASE.WIN32\VC120.PDB
^C:\GAMEENGINE\COCOS2D-X\COCOS2D-X\PROJECTS\SOAPLAND\COCOS2D\COCOS\RENDERER\CCRENDERCOMMAND.CPP
C:\GAMEENGINE\COCOS2D-X\COCOS2D-X\PROJECTS\SOAPLAND\COCOS2D\COCOS\2D\RELEASE.WIN32\VC120.PDB
^C:\GAMEENGINE\COCOS2D-X\COCOS2D-X\PROJECTS\SOAPLAND\COCOS2D\COCOS\RENDERER\CCRENDERER.CPP
C:\GAMEENGINE\COCOS2D-X\COCOS2D-X\PROJECTS\SOAPLAND\COCOS2D\COCOS\2D\RELEASE.WIN32\VC120.PDB
^C:\GAMEENGINE\COCOS2D-X\COCOS2D-X\PROJECTS\SOAPLAND\COCOS2D\COCOS\RENDERER\CCSHADERS.CPP
C:\GAMEENGINE\COCOS2D-X\COCOS2D-X\PROJECTS\SOAPLAND\COCOS2D\COCOS\2D\RELEASE.WIN32\VC120.PDB
^C:\GAMEENGINE\COCOS2D-X\COCOS2D-X\PROJECTS\SOAPLAND\COCOS2D\COCOS\RENDERER\CCTEXTURE2D.CPP
C:\GAMEENGINE\COCOS2D-X\COCOS2D-X\PROJECTS\SOAPLAND\COCOS2D\COCOS\2D\RELEASE.WIN32\VC120.PDB
^C:\GAMEENGINE\COCOS2D-X\COCOS2D-X\PROJECTS\SOAPLAND\COCOS2D\COCOS\RENDERER\CCTEXTUREATLAS.CPP
C:\GAMEENGINE\COCOS2D-X\COCOS2D-X\PROJECTS\SOAPLAND\COCOS2D\COCOS\2D\RELEASE.WIN32\VC120.PDB
^C:\GAMEENGINE\COCOS2D-X\COCOS2D-X\PROJECTS\SOAPLAND\COCOS2D\COCOS\RENDERER\CCTEXTURECACHE.CPP
C:\GAMEENGINE\COCOS2D-X\COCOS2D-X\PROJECTS\SOAPLAND\COCOS2D\COCOS\2D\RELEASE.WIN32\VC120.PDB
^C:\GAMEENGINE\COCOS2D-X\COCOS2D-X\PROJECTS\SOAPLAND\COCOS2D\COCOS\2D\CCACTION.CPP
C:\GAMEENGINE\COCOS2D-X\COCOS2D-X\PROJECTS\SOAPLAND\COCOS2D\COCOS\2D\RELEASE.WIN32\VC120.PDB
^C:\GAMEENGINE\COCOS2D-X\COCOS2D-X\PROJECTS\SOAPLAND\COCOS2D\COCOS\2D\CCACTIONCAMERA.CPP
C:\GAMEENGINE\COCOS2D-X\COCOS2D-X\PROJECTS\SOAPLAND\COCOS2D\COCOS\2D\RELEASE.WIN32\VC120.PDB
^C:\GAMEENGINE\COCOS2D-X\COCOS2D-X\PROJECTS\SOAPLAND\COCOS2D\COCOS\2D\CCACTIONCATMULLROM.CPP
C:\GAMEENGINE\COCOS2D-X\COCOS2D-X\PROJECTS\SOAPLAND\COCOS2D\COCOS\2D\RELEASE.WIN32\VC120.PDB
^C:\GAMEENGINE\COCOS2D-X\COCOS2D-X\PROJECTS\SOAPLAND\COCOS2D\COCOS\2D\CCACTIONEASE.CPP
C:\GAMEENGINE\COCOS2D-X\COCOS2D-X\PROJECTS\SOAPLAND\COCOS2D\COCOS\2D\RELEASE.WIN32\VC120.PDB
^C:\GAMEENGINE\COCOS2D-X\COCOS2D-X\PROJECTS\SOAPLAND\COCOS2D\COCOS\2D\CCACTIONGRID.CPP
C:\GAMEENGINE\COCOS2D-X\COCOS2D-X\PROJECTS\SOAPLAND\COCOS2D\COCOS\2D\RELEASE.WIN32\VC120.PDB
^C:\GAMEENGINE\COCOS2D-X\COCOS2D-X\PROJECTS\SOAPLAND\COCOS2D\COCOS\2D\CCACTIONGRID3D.CPP
C:\GAMEENGINE\COCOS2D-X\COCOS2D-X\PROJECTS\SOAPLAND\COCOS2D\COCOS\2D\RELEASE.WIN32\VC120.PDB
^C:\GAMEENGINE\COCOS2D-X\COCOS2D-X\PROJECTS\SOAPLAND\COCOS2D\COCOS\2D\CCACTIONINSTANT.CPP
C:\GAMEENGINE\COCOS2D-X\COCOS2D-X\PROJECTS\SOAPLAND\COCOS2D\COCOS\2D\RELEASE.WIN32\VC120.PDB
^C:\GAMEENGINE\COCOS2D-X\COCOS2D-X\PROJECTS\SOAPLAND\COCOS2D\COCOS\2D\CCACTIONINTERVAL.CPP
C:\GAMEENGINE\COCOS2D-X\COCOS2D-X\PROJECTS\SOAPLAND\COCOS2D\COCOS\2D\RELEASE.WIN32\VC120.PDB
^C:\GAMEENGINE\COCOS2D-X\COCOS2D-X\PROJECTS\SOAPLAND\COCOS2D\COCOS\2D\CCACTIONMANAGER.CPP
C:\GAMEENGINE\COCOS2D-X\COCOS2D-X\PROJECTS\SOAPLAND\COCOS2D\COCOS\2D\RELEASE.WIN32\VC120.PDB
^C:\GAMEENGINE\COCOS2D-X\COCOS2D-X\PROJECTS\SOAPLAND\COCOS2D\COCOS\2D\CCACTIONPAGETURN3D.CPP
C:\GAMEENGINE\COCOS2D-X\COCOS2D-X\PROJECTS\SOAPLAND\COCOS2D\COCOS\2D\RELEASE.WIN32\VC120.PDB
^C:\GAMEENGINE\COCOS2D-X\COCOS2D-X\PROJECTS\SOAPLAND\COCOS2D\COCOS\2D\CCACTIONPROGRESSTIMER.CPP
C:\GAMEENGINE\COCOS2D-X\COCOS2D-X\PROJECTS\SOAPLAND\COCOS2D\COCOS\2D\RELEASE.WIN32\VC120.PDB
^C:\GAMEENGINE\COCOS2D-X\COCOS2D-X\PROJECTS\SOAPLAND\COCOS2D\COCOS\2D\CCACTIONTILEDGRID.CPP
C:\GAMEENGINE\COCOS2D-X\COCOS2D-X\PROJECTS\SOAPLAND\COCOS2D\COCOS\2D\RELEASE.WIN32\VC120.PDB
^C:\GAMEENGINE\COCOS2D-X\COCOS2D-X\PROJECTS\SOAPLAND\COCOS2D\COCOS\2D\CCACTIONTWEEN.CPP
C:\GAMEENGINE\COCOS2D-X\COCOS2D-X\PROJECTS\SOAPLAND\COCOS2D\COCOS\2D\RELEASE.WIN32\VC120.PDB
^C:\GAMEENGINE\COCOS2D-X\COCOS2D-X\PROJECTS\SOAPLAND\COCOS2D\COCOS\2D\CCANIMATION.CPP
C:\GAMEENGINE\COCOS2D-X\COCOS2D-X\PROJECTS\SOAPLAND\COCOS2D\COCOS\2D\RELEASE.WIN32\VC120.PDB
^C:\GAMEENGINE\COCOS2D-X\COCOS2D-X\PROJECTS\SOAPLAND\COCOS2D\COCOS\2D\CCANIMATIONCACHE.CPP
C:\GAMEENGINE\COCOS2D-X\COCOS2D-X\PROJECTS\SOAPLAND\COCOS2D\COCOS\2D\RELEASE.WIN32\VC120.PDB
^C:\GAMEENGINE\COCOS2D-X\COCOS2D-X\PROJECTS\SOAPLAND\COCOS2D\COCOS\2D\CCATLASNODE.CPP
C:\GAMEENGINE\COCOS2D-X\COCOS2D-X\PROJECTS\SOAPLAND\COCOS2D\COCOS\2D\RELEASE.WIN32\VC120.PDB
^C:\GAMEENGINE\COCOS2D-X\COCOS2D-X\PROJECTS\SOAPLAND\COCOS2D\COCOS\2D\CCCLIPPINGNODE.CPP
C:\GAMEENGINE\COCOS2D-X\COCOS2D-X\PROJECTS\SOAPLAND\COCOS2D\COCOS\2D\RELEASE.WIN32\VC120.PDB
^C:\GAMEENGINE\COCOS2D-X\COCOS2D-X\PROJECTS\SOAPLAND\COCOS2D\COCOS\2D\CCCOMPONENT.CPP
C:\GAMEENGINE\COCOS2D-X\COCOS2D-X\PROJECTS\SOAPLAND\COCOS2D\COCOS\2D\RELEASE.WIN32\VC120.PDB
^C:\GAMEENGINE\COCOS2D-X\COCOS2D-X\PROJECTS\SOAPLAND\COCOS2D\COCOS\2D\CCCOMPONENTCONTAINER.CPP
C:\GAMEENGINE\COCOS2D-X\COCOS2D-X\PROJECTS\SOAPLAND\COCOS2D\COCOS\2D\RELEASE.WIN32\VC120.PDB
^C:\GAMEENGINE\COCOS2D-X\COCOS2D-X\PROJECTS\SOAPLAND\COCOS2D\COCOS\2D\CCDRAWINGPRIMITIVES.CPP
C:\GAMEENGINE\COCOS2D-X\COCOS2D-X\PROJECTS\SOAPLAND\COCOS2D\COCOS\2D\RELEASE.WIN32\VC120.PDB
^C:\GAMEENGINE\COCOS2D-X\COCOS2D-X\PROJECTS\SOAPLAND\COCOS2D\COCOS\2D\CCDRAWNODE.CPP
C:\GAMEENGINE\COCOS2D-X\COCOS2D-X\PROJECTS\SOAPLAND\COCOS2D\COCOS\2D\RELEASE.WIN32\VC120.PDB
^C:\GAMEENGINE\COCOS2D-X\COCOS2D-X\PROJECTS\SOAPLAND\COCOS2D\COCOS\2D\CCFONT.CPP
C:\GAMEENGINE\COCOS2D-X\COCOS2D-X\PROJECTS\SOAPLAND\COCOS2D\COCOS\2D\RELEASE.WIN32\VC120.PDB
^C:\GAMEENGINE\COCOS2D-X\COCOS2D-X\PROJECTS\SOAPLAND\COCOS2D\COCOS\2D\CCFONTATLAS.CPP
C:\GAMEENGINE\COCOS2D-X\COCOS2D-X\PROJECTS\SOAPLAND\COCOS2D\COCOS\2D\RELEASE.WIN32\VC120.PDB
^C:\GAMEENGINE\COCOS2D-X\COCOS2D-X\PROJECTS\SOAPLAND\COCOS2D\COCOS\2D\CCFONTATLASCACHE.CPP
C:\GAMEENGINE\COCOS2D-X\COCOS2D-X\PROJECTS\SOAPLAND\COCOS2D\COCOS\2D\RELEASE.WIN32\VC120.PDB
^C:\GAMEENGINE\COCOS2D-X\COCOS2D-X\PROJECTS\SOAPLAND\COCOS2D\COCOS\2D\CCFONTCHARMAP.CPP
C:\GAMEENGINE\COCOS2D-X\COCOS2D-X\PROJECTS\SOAPLAND\COCOS2D\COCOS\2D\RELEASE.WIN32\VC120.PDB
^C:\GAMEENGINE\COCOS2D-X\COCOS2D-X\PROJECTS\SOAPLAND\COCOS2D\COCOS\2D\CCFONTFNT.CPP
C:\GAMEENGINE\COCOS2D-X\COCOS2D-X\PROJECTS\SOAPLAND\COCOS2D\COCOS\2D\RELEASE.WIN32\VC120.PDB
^C:\GAMEENGINE\COCOS2D-X\COCOS2D-X\PROJECTS\SOAPLAND\COCOS2D\COCOS\2D\CCFONTFREETYPE.CPP
C:\GAMEENGINE\COCOS2D-X\COCOS2D-X\PROJECTS\SOAPLAND\COCOS2D\COCOS\2D\RELEASE.WIN32\VC120.PDB
^C:\GAMEENGINE\COCOS2D-X\COCOS2D-X\PROJECTS\SOAPLAND\COCOS2D\COCOS\2D\CCGLBUFFEREDNODE.CPP
C:\GAMEENGINE\COCOS2D-X\COCOS2D-X\PROJECTS\SOAPLAND\COCOS2D\COCOS\2D\RELEASE.WIN32\VC120.PDB
^C:\GAMEENGINE\COCOS2D-X\COCOS2D-X\PROJECTS\SOAPLAND\COCOS2D\COCOS\2D\CCGRABBER.CPP
C:\GAMEENGINE\COCOS2D-X\COCOS2D-X\PROJECTS\SOAPLAND\COCOS2D\COCOS\2D\RELEASE.WIN32\VC120.PDB
^C:\GAMEENGINE\COCOS2D-X\COCOS2D-X\PROJECTS\SOAPLAND\COCOS2D\COCOS\2D\CCGRID.CPP
C:\GAMEENGINE\COCOS2D-X\COCOS2D-X\PROJECTS\SOAPLAND\COCOS2D\COCOS\2D\RELEASE.WIN32\VC120.PDB
^C:\GAMEENGINE\COCOS2D-X\COCOS2D-X\PROJECTS\SOAPLAND\COCOS2D\COCOS\2D\CCLABEL.CPP
C:\GAMEENGINE\COCOS2D-X\COCOS2D-X\PROJECTS\SOAPLAND\COCOS2D\COCOS\2D\RELEASE.WIN32\VC120.PDB
^C:\GAMEENGINE\COCOS2D-X\COCOS2D-X\PROJECTS\SOAPLAND\COCOS2D\COCOS\2D\CCLABELATLAS.CPP
C:\GAMEENGINE\COCOS2D-X\COCOS2D-X\PROJECTS\SOAPLAND\COCOS2D\COCOS\2D\RELEASE.WIN32\VC120.PDB
^C:\GAMEENGINE\COCOS2D-X\COCOS2D-X\PROJECTS\SOAPLAND\COCOS2D\COCOS\2D\CCLABELBMFONT.CPP
C:\GAMEENGINE\COCOS2D-X\COCOS2D-X\PROJECTS\SOAPLAND\COCOS2D\COCOS\2D\RELEASE.WIN32\VC120.PDB
^C:\GAMEENGINE\COCOS2D-X\COCOS2D-X\PROJECTS\SOAPLAND\COCOS2D\COCOS\2D\CCLABELTEXTFORMATTER.CPP
C:\GAMEENGINE\COCOS2D-X\COCOS2D-X\PROJECTS\SOAPLAND\COCOS2D\COCOS\2D\RELEASE.WIN32\VC120.PDB
^C:\GAMEENGINE\COCOS2D-X\COCOS2D-X\PROJECTS\SOAPLAND\COCOS2D\COCOS\2D\CCLABELTTF.CPP
C:\GAMEENGINE\COCOS2D-X\COCOS2D-X\PROJECTS\SOAPLAND\COCOS2D\COCOS\2D\RELEASE.WIN32\VC120.PDB
^C:\GAMEENGINE\COCOS2D-X\COCOS2D-X\PROJECTS\SOAPLAND\COCOS2D\COCOS\2D\CCLAYER.CPP
C:\GAMEENGINE\COCOS2D-X\COCOS2D-X\PROJECTS\SOAPLAND\COCOS2D\COCOS\2D\RELEASE.WIN32\VC120.PDB
^C:\GAMEENGINE\COCOS2D-X\COCOS2D-X\PROJECTS\SOAPLAND\COCOS2D\COCOS\2D\CCMENU.CPP
C:\GAMEENGINE\COCOS2D-X\COCOS2D-X\PROJECTS\SOAPLAND\COCOS2D\COCOS\2D\RELEASE.WIN32\VC120.PDB
^C:\GAMEENGINE\COCOS2D-X\COCOS2D-X\PROJECTS\SOAPLAND\COCOS2D\COCOS\2D\CCMENUITEM.CPP
C:\GAMEENGINE\COCOS2D-X\COCOS2D-X\PROJECTS\SOAPLAND\COCOS2D\COCOS\2D\RELEASE.WIN32\VC120.PDB
^C:\GAMEENGINE\COCOS2D-X\COCOS2D-X\PROJECTS\SOAPLAND\COCOS2D\COCOS\2D\CCMOTIONSTREAK.CPP
C:\GAMEENGINE\COCOS2D-X\COCOS2D-X\PROJECTS\SOAPLAND\COCOS2D\COCOS\2D\RELEASE.WIN32\VC120.PDB
^C:\GAMEENGINE\COCOS2D-X\COCOS2D-X\PROJECTS\SOAPLAND\COCOS2D\COCOS\2D\CCNODE.CPP
C:\GAMEENGINE\COCOS2D-X\COCOS2D-X\PROJECTS\SOAPLAND\COCOS2D\COCOS\2D\RELEASE.WIN32\VC120.PDB
^C:\GAMEENGINE\COCOS2D-X\COCOS2D-X\PROJECTS\SOAPLAND\COCOS2D\COCOS\2D\CCNODEGRID.CPP
C:\GAMEENGINE\COCOS2D-X\COCOS2D-X\PROJECTS\SOAPLAND\COCOS2D\COCOS\2D\RELEASE.WIN32\VC120.PDB
^C:\GAMEENGINE\COCOS2D-X\COCOS2D-X\PROJECTS\SOAPLAND\COCOS2D\COCOS\2D\CCPARALLAXNODE.CPP
C:\GAMEENGINE\COCOS2D-X\COCOS2D-X\PROJECTS\SOAPLAND\COCOS2D\COCOS\2D\RELEASE.WIN32\VC120.PDB
^C:\GAMEENGINE\COCOS2D-X\COCOS2D-X\PROJECTS\SOAPLAND\COCOS2D\COCOS\2D\CCPARTICLEBATCHNODE.CPP
C:\GAMEENGINE\COCOS2D-X\COCOS2D-X\PROJECTS\SOAPLAND\COCOS2D\COCOS\2D\RELEASE.WIN32\VC120.PDB
^C:\GAMEENGINE\COCOS2D-X\COCOS2D-X\PROJECTS\SOAPLAND\COCOS2D\COCOS\2D\CCPARTICLEEXAMPLES.CPP
C:\GAMEENGINE\COCOS2D-X\COCOS2D-X\PROJECTS\SOAPLAND\COCOS2D\COCOS\2D\RELEASE.WIN32\VC120.PDB
^C:\GAMEENGINE\COCOS2D-X\COCOS2D-X\PROJECTS\SOAPLAND\COCOS2D\COCOS\2D\CCPARTICLESYSTEM.CPP
C:\GAMEENGINE\COCOS2D-X\COCOS2D-X\PROJECTS\SOAPLAND\COCOS2D\COCOS\2D\RELEASE.WIN32\VC120.PDB
^C:\GAMEENGINE\COCOS2D-X\COCOS2D-X\PROJECTS\SOAPLAND\COCOS2D\COCOS\2D\CCPARTICLESYSTEMQUAD.CPP
C:\GAMEENGINE\COCOS2D-X\COCOS2D-X\PROJECTS\SOAPLAND\COCOS2D\COCOS\2D\RELEASE.WIN32\VC120.PDB
^C:\GAMEENGINE\COCOS2D-X\COCOS2D-X\PROJECTS\SOAPLAND\COCOS2D\COCOS\2D\CCPROGRESSTIMER.CPP
C:\GAMEENGINE\COCOS2D-X\COCOS2D-X\PROJECTS\SOAPLAND\COCOS2D\COCOS\2D\RELEASE.WIN32\VC120.PDB
^C:\GAMEENGINE\COCOS2D-X\COCOS2D-X\PROJECTS\SOAPLAND\COCOS2D\COCOS\2D\CCRENDERTEXTURE.CPP
C:\GAMEENGINE\COCOS2D-X\COCOS2D-X\PROJECTS\SOAPLAND\COCOS2D\COCOS\2D\RELEASE.WIN32\VC120.PDB
^C:\GAMEENGINE\COCOS2D-X\COCOS2D-X\PROJECTS\SOAPLAND\COCOS2D\COCOS\2D\CCSCENE.CPP
C:\GAMEENGINE\COCOS2D-X\COCOS2D-X\PROJECTS\SOAPLAND\COCOS2D\COCOS\2D\RELEASE.WIN32\VC120.PDB
^C:\GAMEENGINE\COCOS2D-X\COCOS2D-X\PROJECTS\SOAPLAND\COCOS2D\COCOS\2D\CCSPRITE.CPP
C:\GAMEENGINE\COCOS2D-X\COCOS2D-X\PROJECTS\SOAPLAND\COCOS2D\COCOS\2D\RELEASE.WIN32\VC120.PDB
^C:\GAMEENGINE\COCOS2D-X\COCOS2D-X\PROJECTS\SOAPLAND\COCOS2D\COCOS\2D\CCSPRITEBATCHNODE.CPP
C:\GAMEENGINE\COCOS2D-X\COCOS2D-X\PROJECTS\SOAPLAND\COCOS2D\COCOS\2D\RELEASE.WIN32\VC120.PDB
^C:\GAMEENGINE\COCOS2D-X\COCOS2D-X\PROJECTS\SOAPLAND\COCOS2D\COCOS\2D\CCSPRITEFRAME.CPP
C:\GAMEENGINE\COCOS2D-X\COCOS2D-X\PROJECTS\SOAPLAND\COCOS2D\COCOS\2D\RELEASE.WIN32\VC120.PDB
^C:\GAMEENGINE\COCOS2D-X\COCOS2D-X\PROJECTS\SOAPLAND\COCOS2D\COCOS\2D\CCSPRITEFRAMECACHE.CPP
C:\GAMEENGINE\COCOS2D-X\COCOS2D-X\PROJECTS\SOAPLAND\COCOS2D\COCOS\2D\RELEASE.WIN32\VC120.PDB
^C:\GAMEENGINE\COCOS2D-X\COCOS2D-X\PROJECTS\SOAPLAND\COCOS2D\COCOS\2D\CCTEXTFIELDTTF.CPP
C:\GAMEENGINE\COCOS2D-X\COCOS2D-X\PROJECTS\SOAPLAND\COCOS2D\COCOS\2D\RELEASE.WIN32\VC120.PDB
^C:\GAMEENGINE\COCOS2D-X\COCOS2D-X\PROJECTS\SOAPLAND\COCOS2D\COCOS\2D\CCTILEMAPATLAS.CPP
C:\GAMEENGINE\COCOS2D-X\COCOS2D-X\PROJECTS\SOAPLAND\COCOS2D\COCOS\2D\RELEASE.WIN32\VC120.PDB
^C:\GAMEENGINE\COCOS2D-X\COCOS2D-X\PROJECTS\SOAPLAND\COCOS2D\COCOS\2D\CCTMXLAYER.CPP
C:\GAMEENGINE\COCOS2D-X\COCOS2D-X\PROJECTS\SOAPLAND\COCOS2D\COCOS\2D\RELEASE.WIN32\VC120.PDB
^C:\GAMEENGINE\COCOS2D-X\COCOS2D-X\PROJECTS\SOAPLAND\COCOS2D\COCOS\2D\CCTMXOBJECTGROUP.CPP
C:\GAMEENGINE\COCOS2D-X\COCOS2D-X\PROJECTS\SOAPLAND\COCOS2D\COCOS\2D\RELEASE.WIN32\VC120.PDB
^C:\GAMEENGINE\COCOS2D-X\COCOS2D-X\PROJECTS\SOAPLAND\COCOS2D\COCOS\2D\CCTMXTILEDMAP.CPP
C:\GAMEENGINE\COCOS2D-X\COCOS2D-X\PROJECTS\SOAPLAND\COCOS2D\COCOS\2D\RELEASE.WIN32\VC120.PDB
^C:\GAMEENGINE\COCOS2D-X\COCOS2D-X\PROJECTS\SOAPLAND\COCOS2D\COCOS\2D\CCTMXXMLPARSER.CPP
C:\GAMEENGINE\COCOS2D-X\COCOS2D-X\PROJECTS\SOAPLAND\COCOS2D\COCOS\2D\RELEASE.WIN32\VC120.PDB
^C:\GAMEENGINE\COCOS2D-X\COCOS2D-X\PROJECTS\SOAPLAND\COCOS2D\COCOS\2D\CCTRANSITION.CPP
C:\GAMEENGINE\COCOS2D-X\COCOS2D-X\PROJECTS\SOAPLAND\COCOS2D\COCOS\2D\RELEASE.WIN32\VC120.PDB
^C:\GAMEENGINE\COCOS2D-X\COCOS2D-X\PROJECTS\SOAPLAND\COCOS2D\COCOS\2D\CCTRANSITIONPAGETURN.CPP
C:\GAMEENGINE\COCOS2D-X\COCOS2D-X\PROJECTS\SOAPLAND\COCOS2D\COCOS\2D\RELEASE.WIN32\VC120.PDB
^C:\GAMEENGINE\COCOS2D-X\COCOS2D-X\PROJECTS\SOAPLAND\COCOS2D\COCOS\2D\CCTRANSITIONPROGRESS.CPP
C:\GAMEENGINE\COCOS2D-X\COCOS2D-X\PROJECTS\SOAPLAND\COCOS2D\COCOS\2D\RELEASE.WIN32\VC120.PDB
^C:\GAMEENGINE\COCOS2D-X\COCOS2D-X\PROJECTS\SOAPLAND\COCOS2D\COCOS\2D\CCTWEENFUNCTION.CPP
C:\GAMEENGINE\COCOS2D-X\COCOS2D-X\PROJECTS\SOAPLAND\COCOS2D\COCOS\2D\RELEASE.WIN32\VC120.PDB
^C:\GAMEENGINE\COCOS2D-X\COCOS2D-X\PROJECTS\SOAPLAND\CLASSES\C_OBJECT.CPP|C:\GAMEENGINE\COCOS2D-X\COCOS2D-X\PROJECTS\SOAPLAND\CLASSES\C_SWYPER.CPP
C:\GAMEENGINE\COCOS2D-X\COCOS2D-X\PROJECTS\SOAPLAND\COCOS2D\COCOS\2D\RELEASE.WIN32\C_OBJECT.OBJ
C:\GAMEENGINE\COCOS2D-X\COCOS2D-X\PROJECTS\SOAPLAND\COCOS2D\COCOS\2D\RELEASE.WIN32\C_SWYPER.OBJ
^C:\GAMEENGINE\COCOS2D-X\COCOS2D-X\PROJECTS\SOAPLAND\CLASSES\C_OBJECT.CPP
C:\GAMEENGINE\COCOS2D-X\COCOS2D-X\PROJECTS\SOAPLAND\COCOS2D\COCOS\2D\RELEASE.WIN32\VC120.PDB
^C:\GAMEENGINE\COCOS2D-X\COCOS2D-X\PROJECTS\SOAPLAND\CLASSES\C_SWYPER.CPP
C:\GAMEENGINE\COCOS2D-X\COCOS2D-X\PROJECTS\SOAPLAND\COCOS2D\COCOS\2D\RELEASE.WIN32\VC120.PDB
